…
    ## Rows: 49 Columns: 8
    ## ── Column specification ────────────────────────────────────────────────────────
    ## Delimiter: ","
    ## chr (2): Group, Litter Number
    ## dbl (6): GD0 weight, GD18 weight, GD of Birth, Pups born alive, Pups dead @ ...
    ## 
    ## ℹ Use `spec()` to retrieve the full column specification for this data.
    ## ℹ Specify the column types or set `show_col_types = FALSE` to quiet this message.

``` r
litters_df
```

    ## # A tibble: 49 × 8
    ##    Group `Litter Number` `GD0 weight` `GD18 weight` `GD of Birth`
    ##    <chr> <chr>                  <dbl>         <dbl>         <dbl>
    ##  1 Con7  #85                     19.7          34.7            20
    ##  2 Con7  #1/2/95/2               27            42              19
    ##  3 Con7  #5/5/3/83/3-3           26            41.4            19
    ##  4 Con7  #5/4/2/95/2             28.5          44.1            19
    ##  5 Con7  #4/2/95/3-3             NA            NA              20
    ##  6 Con7  #2/2/95/3-2             NA            NA              20
    ##  7 Con7  #1/5/3/83/3-3/2         NA            NA              20
    ##  8 Con8  #3/83/3-3               NA            NA              20
    ##  9 Con8  #2/95/3                 NA            NA              20
    ## 10 Con8  #3/5/2/2/95             28.5          NA              20
    ## # ℹ 39 more rows
    ## # ℹ 3 more variables: `Pups born alive` <dbl>, `Pups dead @ birth` <dbl>,
    ## #   `Pups survive` <dbl>

``` r
litters_df = janitor::clean_names(litters_df)
view(litters_df)
```

select is used to select columns.

``` r
select(litters_df, group, litter_number, gd0_weight)
```

    ## # A tibble: 49 × 3
    ##    group litter_number   gd0_weight
    ##    <chr> <chr>                <dbl>
    ##  1 Con7  #85                   19.7
    ##  2 Con7  #1/2/95/2             27  
    ##  3 Con7  #5/5/3/83/3-3         26  
    ##  4 Con7  #5/4/2/95/2           28.5
    ##  5 Con7  #4/2/95/3-3           NA  
    ##  6 Con7  #2/2/95/3-2           NA  
    ##  7 Con7  #1/5/3/83/3-3/2       NA  
    ##  8 Con8  #3/83/3-3             NA  
    ##  9 Con8  #2/95/3               NA  
    ## 10 Con8  #3/5/2/2/95           28.5
    ## # ℹ 39 more rows

``` r
select(litters_df, gd0_weight, group)
```

    ## # A tibble: 49 × 2
    ##    gd0_weight group
    ##         <dbl> <chr>
    ##  1       19.7 Con7 
    ##  2       27   Con7 
    ##  3       26   Con7 
    ##  4       28.5 Con7 
    ##  5       NA   Con7 
    ##  6       NA   Con7 
    ##  7       NA   Con7 
    ##  8       NA   Con8 
    ##  9       NA   Con8 
    ## 10       28.5 Con8 
    ## # ℹ 39 more rows

``` r
# it will arrange as your orders. 

select(litters_df, group:gd_of_birth)
```

    ## # A tibble: 49 × 5
    ##    group litter_number   gd0_weight gd18_weight gd_of_birth
    ##    <chr> <chr>                <dbl>       <dbl>       <dbl>
    ##  1 Con7  #85                   19.7        34.7          20
    ##  2 Con7  #1/2/95/2             27          42            19
    ##  3 Con7  #5/5/3/83/3-3         26          41.4          19
    ##  4 Con7  #5/4/2/95/2           28.5        44.1          19
    ##  5 Con7  #4/2/95/3-3           NA          NA            20
    ##  6 Con7  #2/2/95/3-2           NA          NA            20
    ##  7 Con7  #1/5/3/83/3-3/2       NA          NA            20
    ##  8 Con8  #3/83/3-3             NA          NA            20
    ##  9 Con8  #2/95/3               NA          NA            20
    ## 10 Con8  #3/5/2/2/95           28.5        NA            20
    ## # ℹ 39 more rows

``` r
select(litters_df, group, starts_with("pups"))
```

    ## # A tibble: 49 × 4
    ##    group pups_born_alive pups_dead_birth pups_survive
    ##    <chr>           <dbl>           <dbl>        <dbl>
    ##  1 Con7                3               4            3
    ##  2 Con7                8               0            7
    ##  3 Con7                6               0            5
    ##  4 Con7                5               1            4
    ##  5 Con7                6               0            6
    ##  6 Con7                6               0            4
    ##  7 Con7                9               0            9
    ##  8 Con8                9               1            8
    ##  9 Con8                8               0            8
    ## 10 Con8                8               0            8
    ## # ℹ 39 more rows

``` r
select(litters_df, -litter_number)
```

    ## # A tibble: 49 × 7
    ##    group gd0_weight gd18_weight gd_of_birth pups_born_alive pups_dead_birth
    ##    <chr>      <dbl>       <dbl>       <dbl>           <dbl>           <dbl>
    ##  1 Con7        19.7        34.7          20               3               4
    ##  2 Con7        27          42            19               8               0
    ##  3 Con7        26          41.4          19               6               0
    ##  4 Con7        28.5        44.1          19               5               1
    ##  5 Con7        NA          NA            20               6               0
    ##  6 Con7        NA          NA            20               6               0
    ##  7 Con7        NA          NA            20               9               0
    ##  8 Con8        NA          NA            20               9               1
    ##  9 Con8        NA          NA            20               8               0
    ## 10 Con8        28.5        NA            20               8               0
    ## # ℹ 39 more rows
    ## # ℹ 1 more variable: pups_survive <dbl>

``` r
select(litters_df, -starts_with("gd"))
```

    ## # A tibble: 49 × 5
    ##    group litter_number   pups_born_alive pups_dead_birth pups_survive
    ##    <chr> <chr>                     <dbl>           <dbl>        <dbl>
    ##  1 Con7  #85                           3               4            3
    ##  2 Con7  #1/2/95/2                     8               0            7
    ##  3 Con7  #5/5/3/83/3-3                 6               0            5
    ##  4 Con7  #5/4/2/95/2                   5               1            4
    ##  5 Con7  #4/2/95/3-3                   6               0            6
    ##  6 Con7  #2/2/95/3-2                   6               0            4
    ##  7 Con7  #1/5/3/83/3-3/2               9               0            9
    ##  8 Con8  #3/83/3-3                     9               1            8
    ##  9 Con8  #2/95/3                       8               0            8
    ## 10 Con8  #3/5/2/2/95                   8               0            8
    ## # ℹ 39 more rows

``` r
select(litters_df, group, litter_id = litter_number)
```

    ## # A tibble: 49 × 2
    ##    group litter_id      
    ##    <chr> <chr>          
    ##  1 Con7  #85            
    ##  2 Con7  #1/2/95/2      
    ##  3 Con7  #5/5/3/83/3-3  
    ##  4 Con7  #5/4/2/95/2    
    ##  5 Con7  #4/2/95/3-3    
    ##  6 Con7  #2/2/95/3-2    
    ##  7 Con7  #1/5/3/83/3-3/2
    ##  8 Con8  #3/83/3-3      
    ##  9 Con8  #2/95/3        
    ## 10 Con8  #3/5/2/2/95    
    ## # ℹ 39 more rows

``` r
select(litters_df, group, litter_id = litter_number, everything())
```

    ## # A tibble: 49 × 8
    ##    group litter_id       gd0_weight gd18_weight gd_of_birth pups_born_alive
    ##    <chr> <chr>                <dbl>       <dbl>       <dbl>           <dbl>
    ##  1 Con7  #85                   19.7        34.7          20               3
    ##  2 Con7  #1/2/95/2             27          42            19               8
    ##  3 Con7  #5/5/3/83/3-3         26          41.4          19               6
    ##  4 Con7  #5/4/2/95/2           28.5        44.1          19               5
    ##  5 Con7  #4/2/95/3-3           NA          NA            20               6
    ##  6 Con7  #2/2/95/3-2           NA          NA            20               6
    ##  7 Con7  #1/5/3/83/3-3/2       NA          NA            20               9
    ##  8 Con8  #3/83/3-3             NA          NA            20               9
    ##  9 Con8  #2/95/3               NA          NA            20               8
    ## 10 Con8  #3/5/2/2/95           28.5        NA            20               8
    ## # ℹ 39 more rows
    ## # ℹ 2 more variables: pups_dead_birth <dbl>, pups_survive <dbl>

``` r
select(litters_df, gd0_weight, everything())
```

    ## # A tibble: 49 × 8
    ##    gd0_weight group litter_number   gd18_weight gd_of_birth pups_born_alive
    ##         <dbl> <chr> <chr>                 <dbl>       <dbl>           <dbl>
    ##  1       19.7 Con7  #85                    34.7          20               3
    ##  2       27   Con7  #1/2/95/2              42            19               8
    ##  3       26   Con7  #5/5/3/83/3-3          41.4          19               6
    ##  4       28.5 Con7  #5/4/2/95/2            44.1          19               5
    ##  5       NA   Con7  #4/2/95/3-3            NA            20               6
    ##  6       NA   Con7  #2/2/95/3-2            NA            20               6
    ##  7       NA   Con7  #1/5/3/83/3-3/2        NA            20               9
    ##  8       NA   Con8  #3/83/3-3              NA            20               9
    ##  9       NA   Con8  #2/95/3                NA            20               8
    ## 10       28.5 Con8  #3/5/2/2/95            NA            20               8
    ## # ℹ 39 more rows
    ## # ℹ 2 more variables: pups_dead_birth <dbl>, pups_survive <dbl>
…
